<?xml version="1.0" encoding="utf-8"?>
<!-- Generator: Adobe Illustrator 15.1.0, SVG Export Plug-In  -->
<!DOCTYPE svg PUBLIC "-//W3C//DTD SVG 1.1//EN" "http://www.w3.org/Graphics/SVG/1.1/DTD/svg11.dtd" [
	<!ENTITY ns_flows "http://ns.adobe.com/Flows/1.0/">
]>
<svg version="1.1"
	 xmlns="http://www.w3.org/2000/svg" xmlns:xlink="http://www.w3.org/1999/xlink" xmlns:a="http://ns.adobe.com/AdobeSVGViewerExtensions/3.0/"
	 x="0px" y="0px" width="300px" height="300px" viewBox="0 0 300 300" overflow="visible" enable-background="new 0 0 300 300"
	 xml:space="preserve">
<defs>
</defs>
<circle fill="#FFFFFF" stroke="#231F20" stroke-width="2" stroke-miterlimit="10" cx="52.999" cy="41.254" r="40.254"/>
<path fill="#231F20" d="M48.716,33.72c0.047,0,0.086,0.016,0.118,0.048c0.062,0.062,0.062,0.164,0,0.305
	c-0.079,0.22-0.211,0.563-0.399,1.034c-0.188,0.47-0.446,1.144-0.775,2.021l-5.663,15.815c-0.501,1.551-1.042,2.64-1.622,3.267
	c-0.61,0.643-1.371,0.963-2.279,0.963c-0.909,0-1.661-0.312-2.256-0.94c-0.297-0.313-0.536-0.74-0.716-1.281
	c-0.181-0.541-0.396-1.203-0.647-1.985l-0.023,0.022l-5.899-15.675c-0.329-0.877-0.592-1.547-0.787-2.009
	c-0.196-0.462-0.333-0.803-0.411-1.023c-0.078-0.141-0.086-0.242-0.023-0.305c0.031-0.031,0.07-0.048,0.117-0.048
	c0.752-0.031,1.489,0.103,2.209,0.4c0.297,0.125,0.61,0.293,0.94,0.505c0.33,0.212,0.646,0.481,0.952,0.812
	c0.305,0.33,0.599,0.721,0.881,1.175c0.281,0.455,0.532,0.987,0.752,1.598l4.982,12.926l4.771-13.019
	c0.204-0.611,0.442-1.148,0.717-1.609c0.275-0.461,0.567-0.857,0.881-1.188s0.635-0.604,0.963-0.822
	c0.329-0.219,0.65-0.399,0.964-0.541C47.197,33.854,47.949,33.705,48.716,33.72z"/>
<path fill="#231F20" d="M63.5,35.365c-0.312,0.376-0.603,0.769-0.868,1.175c-0.221,0.36-0.437,0.768-0.648,1.223
	c-0.211,0.454-0.354,0.908-0.435,1.362c-0.141-0.172-0.353-0.36-0.634-0.563c-0.282-0.204-0.607-0.392-0.975-0.563
	c-0.37-0.171-0.768-0.313-1.199-0.423c-0.431-0.11-0.858-0.164-1.281-0.164c-1.661,0-3.414,0.571-4.464,1.715
	C51.932,40.27,51,41.742,51,43.544v9.329c0,0.597,0.571,1.055,0.728,1.375c0.157,0.321,0.541,0.564,0.752,0.729
	s0.527,0.282,0.747,0.354c0.22,0.07,0.469,0.152,0.65,0.247c0.18,0.094,0.346,0.339,0.448,0.511C54.425,56.26,54.494,56,54.479,57
	h-9.495c-0.032-1,0.016-0.762,0.141-0.934c0.125-0.173,0.282-0.358,0.471-0.444c0.188-0.086,0.403-0.197,0.646-0.275
	c0.244-0.078,0.466-0.233,0.67-0.437c0.204-0.204,0.024-0.509,0.173-0.901C47.232,53.616,47,53.054,47,52.333v-8.037
	c0-3.321,1.241-5.961,3.01-7.919c1.786-1.958,4.332-2.938,7.275-2.938C59.666,33.439,61.857,34.081,63.5,35.365z M64.434,36.376
	c1.629-1.958,3.804-2.938,6.515-2.938s4.417,0.979,6.046,2.938C78.639,38.334,79,40.974,79,44.295v8.037
	c0,0.721,0.559,1.276,0.697,1.669c0.141,0.392,0.54,0.689,0.726,0.893c0.188,0.204,0.509,0.345,0.728,0.423
	c0.219,0.078,0.476,0.161,0.656,0.247c0.182,0.086,0.354,0.328,0.465,0.5S82.45,56,82.418,57H73.7c-0.029-1,0.006-0.74,0.106-0.912
	c0.102-0.172,0.235-0.362,0.399-0.456c0.165-0.093,0.349-0.205,0.552-0.275c0.204-0.069,0.399-0.202,0.587-0.367
	s0.283-0.415,0.432-0.736C75.928,53.933,76,53.469,76,52.873v-9.329c0-1.833-0.413-3.306-1.384-4.418
	c-0.956-1.144-2.166-1.715-3.703-1.715c-1.52,0-3.133,0.571-4.12,1.715C65.837,40.238,65,41.711,65,43.544v8.249
	c0,0.972,0.221,1.832-0.046,2.584c-0.109,0.329-0.065,0.647-0.245,0.952c-0.18,0.305-0.308,0.58-0.574,0.822
	c-0.269,0.243-0.542,0.439-0.904,0.588C62.871,56.888,62,56.962,62,56.962V44.296C62,40.959,62.819,38.319,64.434,36.376z"/>
<text transform="matrix(1 0 0 1 0 99.5757)" font-family="'TimesNewRomanPSMT'" font-size="22.4567">accountants</text>
</svg>
