<?xml version="1.0" encoding="utf-8"?>
<!-- Generator: Adobe Illustrator 15.1.0, SVG Export Plug-In  -->
<!DOCTYPE svg PUBLIC "-//W3C//DTD SVG 1.1//EN" "http://www.w3.org/Graphics/SVG/1.1/DTD/svg11.dtd" [
	<!ENTITY ns_flows "http://ns.adobe.com/Flows/1.0/">
]>
<svg version="1.1"
	 xmlns="http://www.w3.org/2000/svg" xmlns:xlink="http://www.w3.org/1999/xlink" xmlns:a="http://ns.adobe.com/AdobeSVGViewerExtensions/3.0/"
	 x="0px" y="0px" width="10px" height="10px" viewBox="0 0 10 10" overflow="visible" enable-background="new 0 0 10 10"
	 xml:space="preserve">
<defs>
</defs>
<rect x="5.163" y="6.301" transform="matrix(0.7072 0.707 -0.707 0.7072 7.4976 -3.1065)" fill="#FFFFFF" width="4.673" height="2.395"/>
<rect x="1.301" y="0.163" transform="matrix(0.707 -0.7072 0.7072 0.707 -1.0358 2.4998)" fill="#FFFFFF" width="2.396" height="4.674"/>
<rect x="1.301" y="5.162" transform="matrix(-0.7068 -0.7074 0.7074 -0.7068 -1.0375 14.568)" fill="#FFFFFF" width="2.398" height="4.675"/>
<rect x="6.301" y="0.163" transform="matrix(0.7072 0.707 -0.707 0.7072 3.9633 -4.5702)" fill="#FFFFFF" width="2.397" height="4.674"/>
<rect x="3.801" y="3.801" transform="matrix(0.7072 -0.707 0.707 0.7072 -2.0709 4.9989)" fill="#FFFFFF" width="2.397" height="2.398"/>
<rect x="3.801" y="3.801" transform="matrix(0.7072 -0.707 0.707 0.7072 -2.0709 4.9989)" fill="#FFFFFF" width="2.397" height="2.398"/>
</svg>
