<svg version="1.1" xmlns="http://www.w3.org/2000/svg" viewBox="-0.775 -0.44 26 40"><style>.svg-map-marker{fill: #d96525;}</style>
<path class="svg-map-marker" d="M24.45,12.225c0,2.276-0.442,4.78-1.324,7.513c-0.884,2.735-1.859,5.129-2.93,7.183
	c-1.069,2.055-2.31,4.151-3.719,6.291c-1.41,2.139-2.386,3.558-2.929,4.253c-0.543,0.696-0.985,1.249-1.324,1.656l-1.223-1.579
	c-0.85-1.052-1.876-2.522-3.082-4.406c-1.206-1.885-2.411-3.931-3.616-6.138c-1.206-2.206-2.226-4.652-3.056-7.335
	C0.415,16.98,0,14.501,0,12.225c0-3.362,1.197-6.239,3.59-8.634C5.985,1.197,8.863,0,12.225,0c3.361,0,6.239,1.197,8.634,3.591
	C23.253,5.986,24.45,8.863,24.45,12.225z M19.713,12.225c0-2.071-0.731-3.836-2.191-5.297c-1.461-1.46-3.227-2.191-5.297-2.191
	c-2.073,0-3.838,0.731-5.298,2.191c-1.461,1.461-2.19,3.227-2.19,5.297c0,2.073,0.729,3.838,2.19,5.298
	c1.46,1.461,3.225,2.19,5.298,2.19c2.07,0,3.836-0.729,5.297-2.19C18.982,16.063,19.713,14.298,19.713,12.225z M12.225,7.488
	c1.324,0,2.444,0.458,3.361,1.375c0.917,0.917,1.375,2.038,1.375,3.362c0,1.325-0.458,2.445-1.375,3.362
	c-0.917,0.917-2.038,1.375-3.361,1.375c-1.325,0-2.446-0.459-3.362-1.375c-0.917-0.917-1.376-2.038-1.376-3.362
	c0-1.324,0.459-2.445,1.376-3.362C9.779,7.946,10.9,7.488,12.225,7.488z"/></svg>