<?xml version="1.0" encoding="utf-8"?>
<!-- Generator: Adobe Illustrator 15.1.0, SVG Export Plug-In  -->
<!DOCTYPE svg PUBLIC "-//W3C//DTD SVG 1.1//EN" "http://www.w3.org/Graphics/SVG/1.1/DTD/svg11.dtd" [
	<!ENTITY ns_flows "http://ns.adobe.com/Flows/1.0/">
]>
<svg version="1.1"
	 xmlns="http://www.w3.org/2000/svg" xmlns:xlink="http://www.w3.org/1999/xlink" xmlns:a="http://ns.adobe.com/AdobeSVGViewerExtensions/3.0/"
	 x="0px" y="0px" width="14px" height="14px" viewBox="0 0 14 14" overflow="visible" enable-background="new 0 0 14 14"
	 xml:space="preserve">
<defs>
</defs>
<path fill="#FFFFFF" d="M14.04,12.186c0,0.518-0.18,0.956-0.539,1.315c-0.359,0.358-0.797,0.539-1.314,0.539
	s-0.951-0.185-1.302-0.553l-0.026,0.026l-2.392-2.366c-0.824,0.42-1.683,0.631-2.577,0.631c-1.63,0-3.02-0.579-4.167-1.735
	C0.574,8.887,0,7.498,0,5.876C0,4.255,0.574,2.87,1.722,1.722C2.87,0.574,4.255,0,5.876,0c1.621,0,3.01,0.574,4.166,1.722
	c1.157,1.148,1.735,2.537,1.735,4.167c0,0.894-0.209,1.753-0.63,2.576l2.365,2.393l-0.025,0.026
	C13.856,11.234,14.04,11.669,14.04,12.186z M9.254,5.889c0-0.929-0.329-1.722-0.986-2.379s-1.45-0.986-2.379-0.986
	S4.167,2.853,3.51,3.51C2.853,4.167,2.524,4.96,2.524,5.889c0,0.929,0.329,1.722,0.985,2.38c0.657,0.657,1.45,0.986,2.379,0.986
	s1.722-0.329,2.379-0.986C8.926,7.611,9.254,6.818,9.254,5.889z"/>
</svg>
