<svg version="1.1" xmlns="http://www.w3.org/2000/svg" viewBox="-0.452 -0.452 29 29"><style>.svg-telephone{fill: #fff;}</style>
<path  class="svg-telephone" d="M20.604,16.858c-1.873,1.873-1.873,3.746-3.746,3.746c-1.874,0-3.747-1.873-5.62-3.746
	s-3.746-3.747-3.746-5.62s1.873-1.873,3.746-3.746S7.492,0,5.619,0S0,5.619,0,5.619c0,3.746,3.849,11.34,7.492,14.985
	c3.644,3.643,11.239,7.492,14.985,7.492c0,0,5.619-3.746,5.619-5.619S22.477,14.985,20.604,16.858z"/></svg>
