<svg version="1.1" xmlns="http://www.w3.org/2000/svg" viewBox="-0.521 -0.12 30 20"><style>.svg-email{fill: #fff;}</style>
<path class="svg-email" d="M27.072,0H1.885C0.118,0,0,0.403,0,2.017V17.91c0,1.615,0.118,2.018,1.885,2.018h25.188c1.766,0,1.885-0.402,1.885-2.018
	V2.017C28.957,0.403,28.838,0,27.072,0z M10.688,10.159l-9.06,6.446V1.271L10.688,10.159z M3.247,1.16h22.462L14.478,8.864
	L3.247,1.16z M11.042,10.505l3.437,3.371l3.438-3.371l7.045,8.262H3.995L11.042,10.505z M18.27,10.159l9.059-8.888v15.334
	L18.27,10.159z"/>
</svg>
